{
  "@context": [
    "owl":"http://www.w3.org/2002/07/owl#",
    "http://www.w3.org/2000/01/rdf-schema#"
  ],
  "@graph": [
    {
      "@id": "http://swat.cse.lehigh.edu/onto/univ-bench.owl",
      "@type": "owl:Ontology",
      "rdfs:comment": "An university ontology for benchmark tests",
      "rdfs:label": "Univ-bench Ontology",
      "owl:versionInfo": "univ-bench-ontology-owl, ver April 1, 2004"
    },
    {
      "@id": "http://swat.cse.lehigh.edu/onto/univ-bench.owl#AdministrativeStaff",
      "@type": "owl:Class",
      "rdfs:label": "administrative staff worker",
      "rdfs:subClassOf": {
        "@id": "http://swat.cse.lehigh.edu/onto/univ-bench.owl#Employee"
      }
    },
    {
      "@id": "http://swat.cse.lehigh.edu/onto/univ-bench.owl#Employee",
      "@type": "owl:Class",
      "rdfs:label": "Employee",
      "owl:intersectionOf": {
        "@list": [
          {
            "@id": "http://swat.cse.lehigh.edu/onto/univ-bench.owl#Person"
          },
          {
            "@id": "_:genid10"
          }
        ]
      }
    },
    {
      "@id": "http://swat.cse.lehigh.edu/onto/univ-bench.owl#Article",
      "@type": "owl:Class",
      "rdfs:label": "article",
      "rdfs:subClassOf": {
        "@id": "http://swat.cse.lehigh.edu/onto/univ-bench.owl#Publication"
      }
    },
    {
      "@id": "http://swat.cse.lehigh.edu/onto/univ-bench.owl#Publication",
      "@type": "owl:Class",
      "rdfs:label": "publication"
    },
    {
      "@id": "http://swat.cse.lehigh.edu/onto/univ-bench.owl#AssistantProfessor",
      "@type": "owl:Class",
      "rdfs:label": "assistant professor",
      "rdfs:subClassOf": {
        "@id": "http://swat.cse.lehigh.edu/onto/univ-bench.owl#Professor"
      }
    },
    {
      "@id": "http://swat.cse.lehigh.edu/onto/univ-bench.owl#Professor",
      "@type": "owl:Class",
      "rdfs:label": "professor",
      "rdfs:subClassOf": {
        "@id": "http://swat.cse.lehigh.edu/onto/univ-bench.owl#Faculty"
      }
    },
    {
      "@id": "http://swat.cse.lehigh.edu/onto/univ-bench.owl#AssociateProfessor",
      "@type": "owl:Class",
      "rdfs:label": "associate professor",
      "rdfs:subClassOf": {
        "@id": "http://swat.cse.lehigh.edu/onto/univ-bench.owl#Professor"
      }
    },
    {
      "@id": "http://swat.cse.lehigh.edu/onto/univ-bench.owl#Book",
      "@type": "owl:Class",
      "rdfs:label": "book",
      "rdfs:subClassOf": {
        "@id": "http://swat.cse.lehigh.edu/onto/univ-bench.owl#Publication"
      }
    },
    {
      "@id": "http://swat.cse.lehigh.edu/onto/univ-bench.owl#Chair",
      "@type": "owl:Class",
      "rdfs:label": "chair",
      "owl:intersectionOf": {
        "@list": [
          {
            "@id": "http://swat.cse.lehigh.edu/onto/univ-bench.owl#Person"
          },
          {
            "@id": "_:genid2"
          }
        ]
      },
      "rdfs:subClassOf": {
        "@id": "http://swat.cse.lehigh.edu/onto/univ-bench.owl#Professor"
      }
    },
    {
      "@id": "http://swat.cse.lehigh.edu/onto/univ-bench.owl#Person",
      "@type": "owl:Class",
      "rdfs:label": "person"
    },
    {
      "@id": "_:genid2",
      "@type": "owl:Restriction",
      "owl:onProperty": {
        "@id": "http://swat.cse.lehigh.edu/onto/univ-bench.owl#headOf"
      },
      "owl:someValuesFrom": {
        "@id": "http://swat.cse.lehigh.edu/onto/univ-bench.owl#Department"
      }
    },
    {
      "@id": "http://swat.cse.lehigh.edu/onto/univ-bench.owl#Department",
      "@type": "owl:Class",
      "rdfs:label": "university department",
      "rdfs:subClassOf": {
        "@id": "http://swat.cse.lehigh.edu/onto/univ-bench.owl#Organization"
      }
    },
    {
      "@id": "http://swat.cse.lehigh.edu/onto/univ-bench.owl#Organization",
      "@type": "owl:Class",
      "rdfs:label": "organization"
    },
    {
      "@id": "http://swat.cse.lehigh.edu/onto/univ-bench.owl#ClericalStaff",
      "@type": "owl:Class",
      "rdfs:label": "clerical staff worker",
      "rdfs:subClassOf": {
        "@id": "http://swat.cse.lehigh.edu/onto/univ-bench.owl#AdministrativeStaff"
      }
    },
    {
      "@id": "http://swat.cse.lehigh.edu/onto/univ-bench.owl#College",
      "@type": "owl:Class",
      "rdfs:label": "school",
      "rdfs:subClassOf": {
        "@id": "http://swat.cse.lehigh.edu/onto/univ-bench.owl#Organization"
      }
    },
    {
      "@id": "http://swat.cse.lehigh.edu/onto/univ-bench.owl#ConferencePaper",
      "@type": "owl:Class",
      "rdfs:label": "conference paper",
      "rdfs:subClassOf": {
        "@id": "http://swat.cse.lehigh.edu/onto/univ-bench.owl#Article"
      }
    },
    {
      "@id": "http://swat.cse.lehigh.edu/onto/univ-bench.owl#Course",
      "@type": "owl:Class",
      "rdfs:label": "teaching course",
      "rdfs:subClassOf": {
        "@id": "http://swat.cse.lehigh.edu/onto/univ-bench.owl#Work"
      }
    },
    {
      "@id": "http://swat.cse.lehigh.edu/onto/univ-bench.owl#Work",
      "@type": "owl:Class",
      "rdfs:label": "Work"
    },
    {
      "@id": "http://swat.cse.lehigh.edu/onto/univ-bench.owl#Dean",
      "@type": "owl:Class",
      "rdfs:label": "dean",
      "owl:intersectionOf": {
        "@list": [
          {
            "@id": "_:genid4"
          }
        ]
      },
      "rdfs:subClassOf": {
        "@id": "http://swat.cse.lehigh.edu/onto/univ-bench.owl#Professor"
      }
    },
    {
      "@id": "_:genid4",
      "@type": "owl:Restriction",
      "owl:onProperty": {
        "@id": "http://swat.cse.lehigh.edu/onto/univ-bench.owl#headOf"
      },
      "owl:someValuesFrom": {
        "@id": "http://swat.cse.lehigh.edu/onto/univ-bench.owl#College"
      }
    },
    {
      "@id": "http://swat.cse.lehigh.edu/onto/univ-bench.owl#Director",
      "@type": "owl:Class",
      "rdfs:label": "director",
      "owl:intersectionOf": {
        "@list": [
          {
            "@id": "http://swat.cse.lehigh.edu/onto/univ-bench.owl#Person"
          },
          {
            "@id": "_:genid7"
          }
        ]
      }
    },
    {
      "@id": "_:genid7",
      "@type": "owl:Restriction",
      "owl:onProperty": {
        "@id": "http://swat.cse.lehigh.edu/onto/univ-bench.owl#headOf"
      },
      "owl:someValuesFrom": {
        "@id": "http://swat.cse.lehigh.edu/onto/univ-bench.owl#Program"
      }
    },
    {
      "@id": "http://swat.cse.lehigh.edu/onto/univ-bench.owl#Program",
      "@type": "owl:Class",
      "rdfs:label": "program",
      "rdfs:subClassOf": {
        "@id": "http://swat.cse.lehigh.edu/onto/univ-bench.owl#Organization"
      }
    },
    {
      "@id": "_:genid10",
      "@type": "owl:Restriction",
      "owl:onProperty": {
        "@id": "http://swat.cse.lehigh.edu/onto/univ-bench.owl#worksFor"
      },
      "owl:someValuesFrom": {
        "@id": "http://swat.cse.lehigh.edu/onto/univ-bench.owl#Organization"
      }
    },
    {
      "@id": "http://swat.cse.lehigh.edu/onto/univ-bench.owl#Faculty",
      "@type": "owl:Class",
      "rdfs:label": "faculty member",
      "rdfs:subClassOf": {
        "@id": "http://swat.cse.lehigh.edu/onto/univ-bench.owl#Employee"
      }
    },
    {
      "@id": "http://swat.cse.lehigh.edu/onto/univ-bench.owl#FullProfessor",
      "@type": "owl:Class",
      "rdfs:label": "full professor",
      "rdfs:subClassOf": {
        "@id": "http://swat.cse.lehigh.edu/onto/univ-bench.owl#Professor"
      }
    },
    {
      "@id": "http://swat.cse.lehigh.edu/onto/univ-bench.owl#GraduateCourse",
      "@type": "owl:Class",
      "rdfs:label": "Graduate Level Courses",
      "rdfs:subClassOf": {
        "@id": "http://swat.cse.lehigh.edu/onto/univ-bench.owl#Course"
      }
    },
    {
      "@id": "http://swat.cse.lehigh.edu/onto/univ-bench.owl#GraduateStudent",
      "@type": "owl:Class",
      "rdfs:label": "graduate student",
      "rdfs:subClassOf": [
        {
          "@id": "http://swat.cse.lehigh.edu/onto/univ-bench.owl#Person"
        },
        {
          "@id": "_:g511120"
        }
      ]
    },
    {
      "@id": "_:g511120",
      "@type": "owl:Restriction",
      "owl:onProperty": {
        "@id": "http://swat.cse.lehigh.edu/onto/univ-bench.owl#takesCourse"
      },
      "owl:someValuesFrom": {
        "@id": "http://swat.cse.lehigh.edu/onto/univ-bench.owl#GraduateCourse"
      }
    },
    {
      "@id": "http://swat.cse.lehigh.edu/onto/univ-bench.owl#takesCourse",
      "@type": "owl:ObjectProperty",
      "rdfs:label": "is taking"
    },
    {
      "@id": "http://swat.cse.lehigh.edu/onto/univ-bench.owl#Institute",
      "@type": "owl:Class",
      "rdfs:label": "institute",
      "rdfs:subClassOf": {
        "@id": "http://swat.cse.lehigh.edu/onto/univ-bench.owl#Organization"
      }
    },
    {
      "@id": "http://swat.cse.lehigh.edu/onto/univ-bench.owl#JournalArticle",
      "@type": "owl:Class",
      "rdfs:label": "journal article",
      "rdfs:subClassOf": {
        "@id": "http://swat.cse.lehigh.edu/onto/univ-bench.owl#Article"
      }
    },
    {
      "@id": "http://swat.cse.lehigh.edu/onto/univ-bench.owl#Lecturer",
      "@type": "owl:Class",
      "rdfs:label": "lecturer",
      "rdfs:subClassOf": {
        "@id": "http://swat.cse.lehigh.edu/onto/univ-bench.owl#Faculty"
      }
    },
    {
      "@id": "http://swat.cse.lehigh.edu/onto/univ-bench.owl#Manual",
      "@type": "owl:Class",
      "rdfs:label": "manual",
      "rdfs:subClassOf": {
        "@id": "http://swat.cse.lehigh.edu/onto/univ-bench.owl#Publication"
      }
    },
    {
      "@id": "http://swat.cse.lehigh.edu/onto/univ-bench.owl#PostDoc",
      "@type": "owl:Class",
      "rdfs:label": "post doctorate",
      "rdfs:subClassOf": {
        "@id": "http://swat.cse.lehigh.edu/onto/univ-bench.owl#Faculty"
      }
    },
    {
      "@id": "http://swat.cse.lehigh.edu/onto/univ-bench.owl#Research",
      "@type": "owl:Class",
      "rdfs:label": "research work",
      "rdfs:subClassOf": {
        "@id": "http://swat.cse.lehigh.edu/onto/univ-bench.owl#Work"
      }
    },
    {
      "@id": "http://swat.cse.lehigh.edu/onto/univ-bench.owl#ResearchAssistant",
      "@type": "owl:Class",
      "rdfs:label": "university research assistant",
      "rdfs:subClassOf": [
        {
          "@id": "http://swat.cse.lehigh.edu/onto/univ-bench.owl#Person"
        },
        {
          "@id": "_:g511260"
        }
      ]
    },
    {
      "@id": "_:g511260",
      "@type": "owl:Restriction",
      "owl:onProperty": {
        "@id": "http://swat.cse.lehigh.edu/onto/univ-bench.owl#worksFor"
      },
      "owl:someValuesFrom": {
        "@id": "http://swat.cse.lehigh.edu/onto/univ-bench.owl#ResearchGroup"
      }
    },
    {
      "@id": "http://swat.cse.lehigh.edu/onto/univ-bench.owl#worksFor",
      "@type": "owl:ObjectProperty",
      "rdfs:label": "Works For",
      "rdfs:subPropertyOf": {
        "@id": "http://swat.cse.lehigh.edu/onto/univ-bench.owl#memberOf"
      }
    },
    {
      "@id": "http://swat.cse.lehigh.edu/onto/univ-bench.owl#ResearchGroup",
      "@type": "owl:Class",
      "rdfs:label": "research group",
      "rdfs:subClassOf": {
        "@id": "http://swat.cse.lehigh.edu/onto/univ-bench.owl#Organization"
      }
    },
    {
      "@id": "http://swat.cse.lehigh.edu/onto/univ-bench.owl#Schedule",
      "@type": "owl:Class",
      "rdfs:label": "schedule"
    },
    {
      "@id": "http://swat.cse.lehigh.edu/onto/univ-bench.owl#Software",
      "@type": "owl:Class",
      "rdfs:label": "software program",
      "rdfs:subClassOf": {
        "@id": "http://swat.cse.lehigh.edu/onto/univ-bench.owl#Publication"
      }
    },
    {
      "@id": "http://swat.cse.lehigh.edu/onto/univ-bench.owl#Specification",
      "@type": "owl:Class",
      "rdfs:label": "published specification",
      "rdfs:subClassOf": {
        "@id": "http://swat.cse.lehigh.edu/onto/univ-bench.owl#Publication"
      }
    },
    {
      "@id": "http://swat.cse.lehigh.edu/onto/univ-bench.owl#Student",
      "@type": "owl:Class",
      "rdfs:label": "student",
      "owl:intersectionOf": {
        "@list": [
          {
            "@id": "http://swat.cse.lehigh.edu/onto/univ-bench.owl#Person"
          },
          {
            "@id": "_:genid15"
          }
        ]
      }
    },
    {
      "@id": "_:genid15",
      "@type": "owl:Restriction",
      "owl:onProperty": {
        "@id": "http://swat.cse.lehigh.edu/onto/univ-bench.owl#takesCourse"
      },
      "owl:someValuesFrom": {
        "@id": "http://swat.cse.lehigh.edu/onto/univ-bench.owl#Course"
      }
    },
    {
      "@id": "http://swat.cse.lehigh.edu/onto/univ-bench.owl#SystemsStaff",
      "@type": "owl:Class",
      "rdfs:label": "systems staff worker",
      "rdfs:subClassOf": {
        "@id": "http://swat.cse.lehigh.edu/onto/univ-bench.owl#AdministrativeStaff"
      }
    },
    {
      "@id": "http://swat.cse.lehigh.edu/onto/univ-bench.owl#TeachingAssistant",
      "@type": "owl:Class",
      "rdfs:label": "university teaching assistant",
      "owl:intersectionOf": {
        "@list": [
          {
            "@id": "http://swat.cse.lehigh.edu/onto/univ-bench.owl#Person"
          },
          {
            "@id": "_:genid18"
          }
        ]
      }
    },
    {
      "@id": "_:genid18",
      "@type": "owl:Restriction",
      "owl:onProperty": {
        "@id": "http://swat.cse.lehigh.edu/onto/univ-bench.owl#teachingAssistantOf"
      },
      "owl:someValuesFrom": {
        "@id": "http://swat.cse.lehigh.edu/onto/univ-bench.owl#Course"
      }
    },
    {
      "@id": "http://swat.cse.lehigh.edu/onto/univ-bench.owl#TechnicalReport",
      "@type": "owl:Class",
      "rdfs:label": "technical report",
      "rdfs:subClassOf": {
        "@id": "http://swat.cse.lehigh.edu/onto/univ-bench.owl#Article"
      }
    },
    {
      "@id": "http://swat.cse.lehigh.edu/onto/univ-bench.owl#UndergraduateStudent",
      "@type": "owl:Class",
      "rdfs:label": "undergraduate student",
      "rdfs:subClassOf": {
        "@id": "http://swat.cse.lehigh.edu/onto/univ-bench.owl#Student"
      }
    },
    {
      "@id": "http://swat.cse.lehigh.edu/onto/univ-bench.owl#University",
      "@type": "owl:Class",
      "rdfs:label": "university",
      "rdfs:subClassOf": {
        "@id": "http://swat.cse.lehigh.edu/onto/univ-bench.owl#Organization"
      }
    },
    {
      "@id": "http://swat.cse.lehigh.edu/onto/univ-bench.owl#UnofficialPublication",
      "@type": "owl:Class",
      "rdfs:label": "unnoficial publication",
      "rdfs:subClassOf": {
        "@id": "http://swat.cse.lehigh.edu/onto/univ-bench.owl#Publication"
      }
    },
    {
      "@id": "http://swat.cse.lehigh.edu/onto/univ-bench.owl#VisitingProfessor",
      "@type": "owl:Class",
      "rdfs:label": "visiting professor",
      "rdfs:subClassOf": {
        "@id": "http://swat.cse.lehigh.edu/onto/univ-bench.owl#Professor"
      }
    },
    {
      "@id": "http://swat.cse.lehigh.edu/onto/univ-bench.owl#advisor",
      "@type": "owl:ObjectProperty",
      "rdfs:label": "is being advised by",
      "rdfs:domain": {
        "@id": "http://swat.cse.lehigh.edu/onto/univ-bench.owl#Person"
      },
      "rdfs:range": {
        "@id": "http://swat.cse.lehigh.edu/onto/univ-bench.owl#Professor"
      }
    },
    {
      "@id": "http://swat.cse.lehigh.edu/onto/univ-bench.owl#affiliatedOrganizationOf",
      "@type": "owl:ObjectProperty",
      "rdfs:label": "is affiliated with",
      "rdfs:domain": {
        "@id": "http://swat.cse.lehigh.edu/onto/univ-bench.owl#Organization"
      },
      "rdfs:range": {
        "@id": "http://swat.cse.lehigh.edu/onto/univ-bench.owl#Organization"
      }
    },
    {
      "@id": "http://swat.cse.lehigh.edu/onto/univ-bench.owl#affiliateOf",
      "@type": "owl:ObjectProperty",
      "rdfs:label": "is affiliated with",
      "rdfs:domain": {
        "@id": "http://swat.cse.lehigh.edu/onto/univ-bench.owl#Organization"
      },
      "rdfs:range": {
        "@id": "http://swat.cse.lehigh.edu/onto/univ-bench.owl#Person"
      }
    },
    {
      "@id": "http://swat.cse.lehigh.edu/onto/univ-bench.owl#age",
      "@type": "owl:DatatypeProperty",
      "rdfs:label": "is age",
      "rdfs:domain": {
        "@id": "http://swat.cse.lehigh.edu/onto/univ-bench.owl#Person"
      }
    },
    {
      "@id": "http://swat.cse.lehigh.edu/onto/univ-bench.owl#degreeFrom",
      "@type": "owl:ObjectProperty",
      "rdfs:label": "has a degree from",
      "rdfs:domain": {
        "@id": "http://swat.cse.lehigh.edu/onto/univ-bench.owl#Person"
      },
      "rdfs:range": {
        "@id": "http://swat.cse.lehigh.edu/onto/univ-bench.owl#University"
      },
      "owl:inverseOf": {
        "@id": "http://swat.cse.lehigh.edu/onto/univ-bench.owl#hasAlumnus"
      }
    },
    {
      "@id": "http://swat.cse.lehigh.edu/onto/univ-bench.owl#hasAlumnus",
      "@type": "owl:ObjectProperty",
      "rdfs:label": "has as an alumnus",
      "rdfs:domain": {
        "@id": "http://swat.cse.lehigh.edu/onto/univ-bench.owl#University"
      },
      "rdfs:range": {
        "@id": "http://swat.cse.lehigh.edu/onto/univ-bench.owl#Person"
      },
      "owl:inverseOf": {
        "@id": "http://swat.cse.lehigh.edu/onto/univ-bench.owl#degreeFrom"
      }
    },
    {
      "@id": "http://swat.cse.lehigh.edu/onto/univ-bench.owl#doctoralDegreeFrom",
      "@type": "owl:ObjectProperty",
      "rdfs:label": "has a doctoral degree from",
      "rdfs:domain": {
        "@id": "http://swat.cse.lehigh.edu/onto/univ-bench.owl#Person"
      },
      "rdfs:range": {
        "@id": "http://swat.cse.lehigh.edu/onto/univ-bench.owl#University"
      },
      "rdfs:subPropertyOf": {
        "@id": "http://swat.cse.lehigh.edu/onto/univ-bench.owl#degreeFrom"
      }
    },
    {
      "@id": "http://swat.cse.lehigh.edu/onto/univ-bench.owl#emailAddress",
      "@type": "owl:DatatypeProperty",
      "rdfs:label": "can be reached at",
      "rdfs:domain": {
        "@id": "http://swat.cse.lehigh.edu/onto/univ-bench.owl#Person"
      }
    },
    {
      "@id": "http://swat.cse.lehigh.edu/onto/univ-bench.owl#headOf",
      "@type": "owl:ObjectProperty",
      "rdfs:label": "is the head of",
      "rdfs:subPropertyOf": {
        "@id": "http://swat.cse.lehigh.edu/onto/univ-bench.owl#worksFor"
      }
    },
    {
      "@id": "http://swat.cse.lehigh.edu/onto/univ-bench.owl#listedCourse",
      "@type": "owl:ObjectProperty",
      "rdfs:label": "lists as a course",
      "rdfs:domain": {
        "@id": "http://swat.cse.lehigh.edu/onto/univ-bench.owl#Schedule"
      },
      "rdfs:range": {
        "@id": "http://swat.cse.lehigh.edu/onto/univ-bench.owl#Course"
      }
    },
    {
      "@id": "http://swat.cse.lehigh.edu/onto/univ-bench.owl#mastersDegreeFrom",
      "@type": "owl:ObjectProperty",
      "rdfs:label": "has a masters degree from",
      "rdfs:domain": {
        "@id": "http://swat.cse.lehigh.edu/onto/univ-bench.owl#Person"
      },
      "rdfs:range": {
        "@id": "http://swat.cse.lehigh.edu/onto/univ-bench.owl#University"
      },
      "rdfs:subPropertyOf": {
        "@id": "http://swat.cse.lehigh.edu/onto/univ-bench.owl#degreeFrom"
      }
    },
    {
      "@id": "http://swat.cse.lehigh.edu/onto/univ-bench.owl#member",
      "@type": "owl:ObjectProperty",
      "rdfs:label": "has as a member",
      "rdfs:domain": {
        "@id": "http://swat.cse.lehigh.edu/onto/univ-bench.owl#Organization"
      },
      "rdfs:range": {
        "@id": "http://swat.cse.lehigh.edu/onto/univ-bench.owl#Person"
      }
    },
    {
      "@id": "http://swat.cse.lehigh.edu/onto/univ-bench.owl#memberOf",
      "@type": "owl:ObjectProperty",
      "rdfs:label": "member of",
      "owl:inverseOf": {
        "@id": "http://swat.cse.lehigh.edu/onto/univ-bench.owl#member"
      }
    },
    {
      "@id": "http://swat.cse.lehigh.edu/onto/univ-bench.owl#name",
      "@type": "owl:DatatypeProperty",
      "rdfs:label": "name"
    },
    {
      "@id": "http://swat.cse.lehigh.edu/onto/univ-bench.owl#officeNumber",
      "@type": "owl:DatatypeProperty",
      "rdfs:label": "office room No."
    },
    {
      "@id": "http://swat.cse.lehigh.edu/onto/univ-bench.owl#orgPublication",
      "@type": "owl:ObjectProperty",
      "rdfs:label": "publishes",
      "rdfs:domain": {
        "@id": "http://swat.cse.lehigh.edu/onto/univ-bench.owl#Organization"
      },
      "rdfs:range": {
        "@id": "http://swat.cse.lehigh.edu/onto/univ-bench.owl#Publication"
      }
    },
    {
      "@id": "http://swat.cse.lehigh.edu/onto/univ-bench.owl#publicationAuthor",
      "@type": "owl:ObjectProperty",
      "rdfs:label": "was written by",
      "rdfs:domain": {
        "@id": "http://swat.cse.lehigh.edu/onto/univ-bench.owl#Publication"
      },
      "rdfs:range": {
        "@id": "http://swat.cse.lehigh.edu/onto/univ-bench.owl#Person"
      }
    },
    {
      "@id": "http://swat.cse.lehigh.edu/onto/univ-bench.owl#publicationDate",
      "@type": "owl:ObjectProperty",
      "rdfs:label": "was written on",
      "rdfs:domain": {
        "@id": "http://swat.cse.lehigh.edu/onto/univ-bench.owl#Publication"
      }
    },
    {
      "@id": "http://swat.cse.lehigh.edu/onto/univ-bench.owl#publicationResearch",
      "@type": "owl:ObjectProperty",
      "rdfs:label": "is about",
      "rdfs:domain": {
        "@id": "http://swat.cse.lehigh.edu/onto/univ-bench.owl#Publication"
      },
      "rdfs:range": {
        "@id": "http://swat.cse.lehigh.edu/onto/univ-bench.owl#Research"
      }
    },
    {
      "@id": "http://swat.cse.lehigh.edu/onto/univ-bench.owl#researchInterest",
      "@type": "owl:DatatypeProperty",
      "rdfs:label": "is researching"
    },
    {
      "@id": "http://swat.cse.lehigh.edu/onto/univ-bench.owl#researchProject",
      "@type": "owl:ObjectProperty",
      "rdfs:label": "has as a research project",
      "rdfs:domain": {
        "@id": "http://swat.cse.lehigh.edu/onto/univ-bench.owl#ResearchGroup"
      },
      "rdfs:range": {
        "@id": "http://swat.cse.lehigh.edu/onto/univ-bench.owl#Research"
      }
    },
    {
      "@id": "http://swat.cse.lehigh.edu/onto/univ-bench.owl#softwareDocumentation",
      "@type": "owl:ObjectProperty",
      "rdfs:label": "is documented in",
      "rdfs:domain": {
        "@id": "http://swat.cse.lehigh.edu/onto/univ-bench.owl#Software"
      },
      "rdfs:range": {
        "@id": "http://swat.cse.lehigh.edu/onto/univ-bench.owl#Publication"
      }
    },
    {
      "@id": "http://swat.cse.lehigh.edu/onto/univ-bench.owl#softwareVersion",
      "@type": "owl:ObjectProperty",
      "rdfs:label": "is version",
      "rdfs:domain": {
        "@id": "http://swat.cse.lehigh.edu/onto/univ-bench.owl#Software"
      }
    },
    {
      "@id": "http://swat.cse.lehigh.edu/onto/univ-bench.owl#subOrganizationOf",
      "@type": "owl:TransitiveProperty",
      "rdfs:label": "is part of",
      "rdfs:domain": {
        "@id": "http://swat.cse.lehigh.edu/onto/univ-bench.owl#Organization"
      },
      "rdfs:range": {
        "@id": "http://swat.cse.lehigh.edu/onto/univ-bench.owl#Organization"
      }
    },
    {
      "@id": "http://swat.cse.lehigh.edu/onto/univ-bench.owl#teacherOf",
      "@type": "owl:ObjectProperty",
      "rdfs:label": "teaches",
      "rdfs:domain": {
        "@id": "http://swat.cse.lehigh.edu/onto/univ-bench.owl#Faculty"
      },
      "rdfs:range": {
        "@id": "http://swat.cse.lehigh.edu/onto/univ-bench.owl#Course"
      }
    },
    {
      "@id": "http://swat.cse.lehigh.edu/onto/univ-bench.owl#teachingAssistantOf",
      "@type": "owl:ObjectProperty",
      "rdfs:label": "is a teaching assistant for",
      "rdfs:domain": {
        "@id": "http://swat.cse.lehigh.edu/onto/univ-bench.owl#TeachingAssistant"
      },
      "rdfs:range": {
        "@id": "http://swat.cse.lehigh.edu/onto/univ-bench.owl#Course"
      }
    },
    {
      "@id": "http://swat.cse.lehigh.edu/onto/univ-bench.owl#telephone",
      "@type": "owl:DatatypeProperty",
      "rdfs:label": "telephone number",
      "rdfs:domain": {
        "@id": "http://swat.cse.lehigh.edu/onto/univ-bench.owl#Person"
      }
    },
    {
      "@id": "http://swat.cse.lehigh.edu/onto/univ-bench.owl#tenured",
      "@type": "owl:ObjectProperty",
      "rdfs:label": "is tenured:",
      "rdfs:domain": {
        "@id": "http://swat.cse.lehigh.edu/onto/univ-bench.owl#Professor"
      }
    },
    {
      "@id": "http://swat.cse.lehigh.edu/onto/univ-bench.owl#title",
      "@type": "owl:DatatypeProperty",
      "rdfs:label": "title",
      "rdfs:domain": {
        "@id": "http://swat.cse.lehigh.edu/onto/univ-bench.owl#Person"
      }
    },
    {
      "@id": "http://swat.cse.lehigh.edu/onto/univ-bench.owl#undergraduateDegreeFrom",
      "@type": "owl:ObjectProperty",
      "rdfs:label": "has an undergraduate degree from",
      "rdfs:domain": {
        "@id": "http://swat.cse.lehigh.edu/onto/univ-bench.owl#Person"
      },
      "rdfs:range": {
        "@id": "http://swat.cse.lehigh.edu/onto/univ-bench.owl#University"
      },
      "rdfs:subPropertyOf": {
        "@id": "http://swat.cse.lehigh.edu/onto/univ-bench.owl#degreeFrom"
      }
    }
  ]
}
