{
  "@context": "https://liris.cnrs.fr/lionel.medini/temp/context-extern.jsonld",
  "@graph": [
    {
      "@id": "cosdataset:Com_ID",
      "@type": "coswot:Communication",
      "conveys": "cosdataset:Eval_TIX_4ET_Office429_CO2",
      "communicator": "cosdataset:COSIO_Servient_4ET_Office429_1",
      "medium": "cosdataset:COSSB_Servient_4ET_Office429_WhiteBoard",
      "timestamp": "2022-10-26T12:01:00.618000",
      "about": "cosdataset:4ET_Office429_CO2"
    },
    {
      "@id": "cosdataset:Eval_TIX_4ET_Office429_CO2",
      "@type": ["sosa:Observation", "coswot:Evaluation"],
      "featureOI": "cosdataset:4ET_Office429",
      "result": 1250,
      "ptime": "2022-10-26T12:00:00.618000",
      "rtime": "2022-10-26T12:00:00.618000",
      "evaluates": "cosdataset:4ET_Office429_CO2",
      "madeBy": "cosdataset:4ET_Office429_WhiteBoard_CO2Sensor"
    }
  ]
}